Фамилия;Имя;Отчество;Возраст;Телефон;Область;Город;
Иванов;Сергей;Петрович;35;8723233222;Калининградская область;Калининград
Петрова;Екатерина;Сергеевна;36;8798232344;Калининградская область;Зеленоградск;
Сергеев;Петр;Сергеевич;37;8234523423;Калининградская область;Светлогорск;
Сидоров;Иван;Станиславович;38;8523423424;Амурская область;Белогорск;
Михеева;Анастасия;Петровна;39;8234653454;Амурская область;Свободный;
Казанцев;Константин;Тимофеевич;40;8246234234;Амурская область;Зея;
Тимофеева;Ульяна;Александровна;41;8578456785;Курганская область;Курган;
Резник;Владислав;Матусович;42;8967834521;Курганская область;Шадринск;